^C:\USERS\USER\DESKTOP\MAGSHIMIM\C++\HW3\SQLITEC++\SQLITEC++\SOURCEA.CPP|C:\USERS\USER\DESKTOP\MAGSHIMIM\C++\HW3\SQLITEC++\SQLITEC++\SOURCEB.CPP
C:\USERS\USER\DESKTOP\MAGSHIMIM\C++\HW3\SQLITEC++\SQLITEC++\DEBUG\VC120.PDB
C:\USERS\USER\DESKTOP\MAGSHIMIM\C++\HW3\SQLITEC++\SQLITEC++\DEBUG\VC120.IDB
C:\USERS\USER\DESKTOP\MAGSHIMIM\C++\HW3\SQLITEC++\SQLITEC++\DEBUG\SOURCEA.OBJ
^C:\USERS\USER\DESKTOP\MAGSHIMIM\C++\HW3\SQLITEC++\SQLITEC++\SOURCEA.CPP
C:\USERS\USER\DESKTOP\MAGSHIMIM\C++\HW3\SQLITEC++\SQLITEC++\DEBUG\VC120.PDB
C:\USERS\USER\DESKTOP\MAGSHIMIM\C++\HW3\SQLITEC++\SQLITEC++\DEBUG\VC120.IDB
C:\USERS\USER\DESKTOP\MAGSHIMIM\C++\HW3\SQLITEC++\SQLITEC++\DEBUG\SOURCEA.OBJ
^C:\USERS\USER\DESKTOP\MAGSHIMIM\C++\HW3\SQLITEC++\SQLITEC++\SOURCEB.CPP
C:\USERS\USER\DESKTOP\MAGSHIMIM\C++\HW3\SQLITEC++\SQLITEC++\DEBUG\VC120.PDB
C:\USERS\USER\DESKTOP\MAGSHIMIM\C++\HW3\SQLITEC++\SQLITEC++\DEBUG\VC120.IDB
C:\USERS\USER\DESKTOP\MAGSHIMIM\C++\HW3\SQLITEC++\SQLITEC++\DEBUG\SOURCEB.OBJ
^C:\USERS\USER\DESKTOP\MAGSHIMIM\C++\HW3\SQLITEC++\SQLITEC++\SQLITE3.C
C:\USERS\USER\DESKTOP\MAGSHIMIM\C++\HW3\SQLITEC++\SQLITEC++\DEBUG\VC120.PDB
C:\USERS\USER\DESKTOP\MAGSHIMIM\C++\HW3\SQLITEC++\SQLITEC++\DEBUG\VC120.IDB
C:\USERS\USER\DESKTOP\MAGSHIMIM\C++\HW3\SQLITEC++\SQLITEC++\DEBUG\SQLITE3.OBJ
